SPI/CMAC/dump.vcd
$date
	Wed Mar 11 15:51:21 2026
$end
$version
	Icarus Verilog
$end
$timescale
	1ps
$end
$scope module CMAC_TESTING $end
$var wire 1 ! o_SPI_MOSI $end
$var wire 1 " o_SPI_Clk $end
$var wire 1 # o_SPI_CS_n $end
$var wire 1 $ lock_state $end
$var reg 1 % clk $end
$var reg 1 & i_SPI_MISO $end
$var reg 1 ' in $end
$var reg 1 ( rec_ID $end
$var reg 1 ) rst $end
$scope module cmac1 $end
$var wire 1 % clk $end
$var wire 1 & i_SPI_MISO $end
$var wire 1 ' in $end
$var wire 1 ) rst $end
$var wire 2 * w_RX_Count [1:0] $end
$var wire 1 + w_TX_Ready $end
$var wire 1 , w_RX_DV $end
$var wire 8 - w_RX_Byte [7:0] $end
$var wire 1 ! o_SPI_MOSI $end
$var wire 1 " o_SPI_Clk $end
$var wire 1 # o_SPI_CS_n $end
$var parameter 32 . MAX_BYTES_PER_CS $end
$var parameter 3 / S0 $end
$var parameter 3 0 S1 $end
$var parameter 3 1 S2 $end
$var parameter 3 2 S3 $end
$var parameter 3 3 S4 $end
$var parameter 3 4 S5 $end
$var reg 8 5 i_TX_Byte_reg [7:0] $end
$var reg 2 6 i_TX_Count_reg [1:0] $end
$var reg 1 7 i_TX_DV_reg $end
$var reg 1 $ lock_state $end
$var reg 1 8 next_lock_state $end
$var reg 3 9 next_state [2:0] $end
$var reg 128 : rec_ID [127:0] $end
$var reg 2 ; received_byte_count [1:0] $end
$var reg 3 < state [2:0] $end
$var reg 4 = tx_idx [3:0] $end
$var reg 4 > tx_len [3:0] $end
$var reg 1 ? valid_ID $end
$scope module spi_inst $end
$var wire 1 % i_Clk $end
$var wire 1 @ i_Rst_L $end
$var wire 8 A i_TX_Byte [7:0] $end
$var wire 2 B i_TX_Count [1:0] $end
$var wire 1 7 i_TX_DV $end
$var wire 1 # o_SPI_CS_n $end
$var wire 1 + o_TX_Ready $end
$var wire 1 C w_Master_Ready $end
$var wire 1 ! o_SPI_MOSI $end
$var wire 1 " o_SPI_Clk $end
$var wire 1 , o_RX_DV $end
$var wire 8 D o_RX_Byte [7:0] $end
$var wire 1 ! i_SPI_MISO $end
$var parameter 32 E CLKS_PER_HALF_BIT $end
$var parameter 2 F CS_INACTIVE $end
$var parameter 32 G CS_INACTIVE_CLKS $end
$var parameter 2 H IDLE $end
$var parameter 32 I MAX_BYTES_PER_CS $end
$var parameter 32 J SPI_MODE $end
$var parameter 2 K TRANSFER $end
$var reg 2 L o_RX_Count [1:0] $end
$var reg 4 M r_CS_Inactive_Count [3:0] $end
$var reg 1 N r_CS_n $end
$var reg 2 O r_SM_CS [1:0] $end
$var reg 2 P r_TX_Count [1:0] $end
$scope module SPI_Master_Inst $end
$var wire 1 % i_Clk $end
$var wire 1 @ i_Rst_L $end
$var wire 8 Q i_TX_Byte [7:0] $end
$var wire 1 7 i_TX_DV $end
$var wire 1 R w_CPHA $end
$var wire 1 S w_CPOL $end
$var wire 1 ! i_SPI_MISO $end
$var parameter 32 T CLKS_PER_HALF_BIT $end
$var parameter 32 U SPI_MODE $end
$var reg 8 V o_RX_Byte [7:0] $end
$var reg 1 , o_RX_DV $end
$var reg 1 " o_SPI_Clk $end
$var reg 1 ! o_SPI_MOSI $end
$var reg 1 C o_TX_Ready $end
$var reg 1 W r_Leading_Edge $end
$var reg 3 X r_RX_Bit_Count [2:0] $end
$var reg 1 Y r_SPI_Clk $end
$var reg 4 Z r_SPI_Clk_Count [3:0] $end
$var reg 5 [ r_SPI_Clk_Edges [4:0] $end
$var reg 3 \ r_TX_Bit_Count [2:0] $end
$var reg 8 ] r_TX_Byte [7:0] $end
$var reg 1 ^ r_TX_DV $end
$var reg 1 _ r_Trailing_Edge $end
$upscope $end
$upscope $end
$upscope $end
$upscope $end
$enddefinitions $end
$comment Show the parameter values. $end
$dumpall
b11 U
b101 T
b1 K
b11 J
b10 I
b0 H
b1010 G
b10 F
b101 E
b101 4
b100 3
b11 2
b10 1
b1 0
b0 /
b10 .
$end
#0
$dumpvars
0_
0^
b0 ]
b111 \
b0 [
b0 Z
1Y
b111 X
0W
b0 V
1S
1R
b0 Q
b0 P
b0 O
1N
b1010 M
bx L
b0 D
0C
b0 B
b0 A
0@
0?
b0 >
b0 =
b0 <
b0 ;
bx :
b1 9
08
07
b0 6
b0 5
b0 -
0,
1+
bx *
1)
0(
1'
x&
0%
0$
1#
1"
0!
$end
#2000
bx0 *
b0 L
1@
0)
1%
#4000
0%
#6000
1+
1C
b1 <
b1 =
b0 6
b0 B
07
1%
#8000
0%
#10000
0'
b0 6
b0 B
b0 =
b1 >
1%
#12000
0%
#14000
b10000 [
0C
b10101010 ]
1^
b1 O
0#
0N
b1 P
b1 =
0+
b10 6
b10 B
17
b10101010 5
b10101010 A
b10101010 Q
1%
#16000
0%
#18000
0^
b1 Z
b0 =
07
1%
#20000
0%
#22000
b10 Z
1%
#24000
0%
#26000
b11 Z
1%
#28000
0%
#30000
b100 Z
1%
#32000
0%
#34000
0Y
b101 Z
1W
b1111 [
1%
#36000
0%
#38000
b110 Z
0W
1!
b110 \
0"
1%
#40000
0%
#42000
b111 Z
1%
#44000
0%
#46000
b1000 Z
1%
#48000
0%
#50000
b1001 Z
1%
#52000
0%
#54000
1Y
b0 Z
1_
b1110 [
1%
#56000
0%
#58000
1"
b110 X
b10000000 -
b10000000 D
b10000000 V
b1 Z
0_
1%
#60000
0%
#62000
b10 Z
1%
#64000
0%
#66000
b11 Z
1%
#68000
0%
#70000
b100 Z
1%
#72000
0%
#74000
0Y
b101 Z
1W
b1101 [
1%
#76000
0%
#78000
b110 Z
0W
0!
b101 \
0"
1%
#80000
0%
#82000
b111 Z
1%
#84000
0%
#86000
b1000 Z
1%
#88000
0%
#90000
b1001 Z
1%
#92000
0%
#94000
1Y
b0 Z
1_
b1100 [
1%
#96000
0%
#98000
1"
b101 X
b1 Z
0_
1%
#100000
0%
#102000
b10 Z
1%
#104000
0%
#106000
b11 Z
1%
#108000
0%
#110000
b100 Z
1%
#112000
0%
#114000
0Y
b101 Z
1W
b1011 [
1%
#116000
0%
#118000
b110 Z
0W
1!
b100 \
0"
1%
#120000
0%
#122000
b111 Z
1%
#124000
0%
#126000
b1000 Z
1%
#128000
0%
#130000
b1001 Z
1%
#132000
0%
#134000
1Y
b0 Z
1_
b1010 [
1%
#136000
0%
#138000
1"
b100 X
b10100000 -
b10100000 D
b10100000 V
b1 Z
0_
1%
#140000
0%
#142000
b10 Z
1%
#144000
0%
#146000
b11 Z
1%
#148000
0%
#150000
b100 Z
1%
#152000
0%
#154000
0Y
b101 Z
1W
b1001 [
1%
#156000
0%
#158000
b110 Z
0W
0!
b11 \
0"
1%
#160000
0%
#162000
b111 Z
1%
#164000
0%
#166000
b1000 Z
1%
#168000
0%
#170000
b1001 Z
1%
#172000
0%
#174000
1Y
b0 Z
1_
b1000 [
1%
#176000
0%
#178000
1"
b11 X
b1 Z
0_
1%
#180000
0%
#182000
b10 Z
1%
#184000
0%
#186000
b11 Z
1%
#188000
0%
#190000
b100 Z
1%
#192000
0%
#194000
0Y
b101 Z
1W
b111 [
1%
#196000
0%
#198000
b110 Z
0W
1!
b10 \
0"
1%
#200000
0%
#202000
b111 Z
1%
#204000
0%
#206000
b1000 Z
1%
#208000
0%
#210000
b1001 Z
1%
#212000
0%
#214000
1Y
b0 Z
1_
b110 [
1%
#216000
0%
#218000
1"
b10 X
b10101000 -
b10101000 D
b10101000 V
b1 Z
0_
1%
#220000
0%
#222000
b10 Z
1%
#224000
0%
#226000
b11 Z
1%
#228000
0%
#230000
b100 Z
1%
#232000
0%
#234000
0Y
b101 Z
1W
b101 [
1%
#236000
0%
#238000
b110 Z
0W
0!
b1 \
0"
1%
#240000
0%
#242000
b111 Z
1%
#244000
0%
#246000
b1000 Z
1%
#248000
0%
#250000
b1001 Z
1%
#252000
0%
#254000
1Y
b0 Z
1_
b100 [
1%
#256000
0%
#258000
1"
b1 X
b1 Z
0_
1%
#260000
0%
#262000
b10 Z
1%
#264000
0%
#266000
b11 Z
1%
#268000
0%
#270000
b100 Z
1%
#272000
0%
#274000
0Y
b101 Z
1W
b11 [
1%
#276000
0%
#278000
b110 Z
0W
1!
b0 \
0"
1%
#280000
0%
#282000
b111 Z
1%
#284000
0%
#286000
b1000 Z
1%
#288000
0%
#290000
b1001 Z
1%
#292000
0%
#294000
1Y
b0 Z
1_
b10 [
1%
#296000
0%
#298000
1"
b0 X
b10101010 -
b10101010 D
b10101010 V
b1 Z
0_
1%
#300000
0%
#302000
b10 Z
1%
#304000
0%
#306000
b11 Z
1%
#308000
0%
#310000
b100 Z
1%
#312000
0%
#314000
0Y
b101 Z
1W
b1 [
1%
#316000
0%
#318000
b110 Z
0W
0!
b111 \
0"
1%
#320000
0%
#322000
b111 Z
1%
#324000
0%
#326000
b1000 Z
1%
#328000
0%
#330000
b1001 Z
1%
#332000
0%
#334000
1Y
b0 Z
1_
b0 [
1%
#336000
0%
#338000
1+
1"
1,
b111 X
1C
0_
1%
#340000
0%
#342000
1+
b0 6
b0 B
b0 5
b0 A
b0 Q
0,
bx *
b1 L
b1 ;
b1 =
07
1%
#344000
0%
#346000
b0 P
b11111111 ]
1^
b10000 [
0C
b10 =
0+
b10 6
b10 B
17
b11111111 5
b11111111 A
b11111111 Q
1%
#348000
0%
#350000
b1 Z
0^
b0 =
07
1%
#352000
0%
#354000
b10 Z
1%
#356000
0%
#358000
b11 Z
1%
#360000
0%
#362000
b100 Z
1%
#364000
0%
#366000
0Y
b101 Z
1W
b1111 [
1%
#368000
0%
#370000
0"
1!
b110 \
b110 Z
0W
1%
#372000
0%
#374000
b111 Z
1%
#376000
0%
#378000
b1000 Z
1%
#380000
0%
#382000
b1001 Z
1%
#384000
0%
#386000
1Y
b0 Z
1_
b1110 [
1%
#388000
0%
#390000
b1 Z
0_
b110 X
1"
1%
#392000
0%
#394000
b10 Z
1%
#396000
0%
#398000
b11 Z
1%
#400000
0%
#402000
b100 Z
1%
#404000
0%
#406000
0Y
b101 Z
1W
b1101 [
1%
#408000
0%
#410000
0"
b101 \
b110 Z
0W
1%
#412000
0%
#414000
b111 Z
1%
#416000
0%
#418000
b1000 Z
1%
#420000
0%
#422000
b1001 Z
1%
#424000
0%
#426000
1Y
b0 Z
1_
b1100 [
1%
#428000
0%
#430000
b1 Z
0_
b101 X
b11101010 -
b11101010 D
b11101010 V
1"
1%
#432000
0%
#434000
b10 Z
1%
#436000
0%
#438000
b11 Z
1%
#440000
0%
#442000
b100 Z
1%
#444000
0%
#446000
0Y
b101 Z
1W
b1011 [
1%
#448000
0%
#450000
0"
b100 \
b110 Z
0W
1%
#452000
0%
#454000
b111 Z
1%
#456000
0%
#458000
b1000 Z
1%
#460000
0%
#462000
b1001 Z
1%
#464000
0%
#466000
1Y
b0 Z
1_
b1010 [
1%
#468000
0%
#470000
b1 Z
0_
b100 X
1"
1%
#472000
0%
#474000
b10 Z
1%
#476000
0%
#478000
b11 Z
1%
#480000
0%
#482000
b100 Z
1%
#484000
0%
#486000
0Y
b101 Z
1W
b1001 [
1%
#488000
0%
#490000
0"
b11 \
b110 Z
0W
1%
#492000
0%
#494000
b111 Z
1%
#496000
0%
#498000
b1000 Z
1%
#500000
0%
#502000
b1001 Z
1%
#504000
0%
#506000
1Y
b0 Z
1_
b1000 [
1%
#508000
0%
#510000
b1 Z
0_
b11 X
b11111010 -
b11111010 D
b11111010 V
1"
1%
#512000
0%
#514000
b10 Z
1%
#516000
0%
#518000
b11 Z
1%
#520000
0%
#522000
b100 Z
1%
#524000
0%
#526000
0Y
b101 Z
1W
b111 [
1%
#528000
0%
#530000
0"
b10 \
b110 Z
0W
1%
#532000
0%
#534000
b111 Z
1%
#536000
0%
#538000
b1000 Z
1%
#540000
0%
#542000
b1001 Z
1%
#544000
0%
#546000
1Y
b0 Z
1_
b110 [
1%
#548000
0%
#550000
b1 Z
0_
b10 X
1"
1%
#552000
0%
#554000
b10 Z
1%
#556000
0%
#558000
b11 Z
1%
#560000
0%
#562000
b100 Z
1%
#564000
0%
#566000
0Y
b101 Z
1W
b101 [
1%
#568000
0%
#570000
0"
b1 \
b110 Z
0W
1%
#572000
0%
#574000
b111 Z
1%
#576000
0%
#578000
b1000 Z
1%
#580000
0%
#582000
b1001 Z
1%
#584000
0%
#586000
1Y
b0 Z
1_
b100 [
1%
#588000
0%
#590000
b1 Z
0_
b1 X
b11111110 -
b11111110 D
b11111110 V
1"
1%
#592000
0%
#594000
b10 Z
1%
#596000
0%
#598000
b11 Z
1%
#600000
0%
#602000
b100 Z
1%
#604000
0%
#606000
0Y
b101 Z
1W
b11 [
1%
#608000
0%
#610000
0"
b0 \
b110 Z
0W
1%
#612000
0%
#614000
b111 Z
1%
#616000
0%
#618000
b1000 Z
1%
#620000
0%
#622000
b1001 Z
1%
#624000
0%
#626000
1Y
b0 Z
1_
b10 [
1%
#628000
0%
#630000
b1 Z
0_
b0 X
1"
1%
#632000
0%
#634000
b10 Z
1%
#636000
0%
#638000
b11 Z
1%
#640000
0%
#642000
b100 Z
1%
#644000
0%
#646000
0Y
b101 Z
1W
b1 [
1%
#648000
0%
#650000
0"
b111 \
b110 Z
0W
1%
#652000
0%
#654000
b111 Z
1%
#656000
0%
#658000
b1000 Z
1%
#660000
0%
#662000
b1001 Z
1%
#664000
0%
#666000
1Y
b0 Z
1_
b0 [
1%
#668000
0%
#670000
1C
0_
1,
b111 X
b11111111 -
b11111111 D
b11111111 V
1"
1%
#672000
0%
#674000
b10 O
1#
1N
0,
b10 *
b10 L
b10 ;
1%
#676000
0%
#678000
b1001 M
bx0 *
b0 L
1%
#680000
0%
#682000
b1000 M
1%
#684000
0%
#686000
b111 M
1%
#688000
0%
#690000
b110 M
1%
#692000
0%
#694000
b101 M
1%
#696000
0%
#698000
b100 M
1%
#700000
0%
#702000
b11 M
1%
#704000
0%
#706000
b10 M
1%
#708000
0%
#710000
b1 M
1%
#712000
0%
#714000
b0 M
1%
#716000
0%
#718000
b0 5
b0 A
b0 Q
b10 9
1+
b0 O
1%
#720000
0%
#722000
b11 9
b0 6
b0 B
b1 =
07
b0 5
b0 A
b0 Q
b10 <
1%
#724000
0%
#726000
b100 9
b11 <
b10 =
b0 6
b0 B
07
b0 5
b0 A
b0 Q
1%
#728000
0%
#730000
b101 9
b100 <
1%
#732000
0%
#734000
b0 9
b101 <
1%
#736000
0%
#738000
b0 ;
b0 <
08
1%
